…
Code can be found [here.](https://github.com/jdegenfellner/Script_QM1_ZHAW/blob/main/R_codes_with_long_compute_time/posterior.R)


```
## Linking to ImageMagick 6.9.12.93
## Enabled features: cairo, fontconfig, freetype, heic, lcms, pango, raw, rsvg, webp
## Disabled features: fftw, ghostscript, x11
```

```
## # A tibble: 100 × 7
##    format width height colorspace matte filesize density
##    <chr>  <int>  <int> <chr>      <lgl>    <int> <chr>  
##  1 GIF      480    480 sRGB       TRUE         0 72x72  
##  2 GIF      480    480 sRGB       TRUE         0 72x72  
##  3 GIF      480    480 sRGB       TRUE         0 72x72  
##  4 GIF      480    480 sRGB       TRUE         0 72x72  
##  5 GIF      480    480 sRGB       TRUE         0 72x72  
##  6 GIF      480    480 sRGB       TRUE         0 72x72  
##  7 GIF      480    480 sRGB       TRUE         0 72x72  
##  8 GIF      480    480 sRGB       TRUE         0 72x72  
##  9 GIF      480    480 sRGB       TRUE         0 72x72  
## 10 GIF      480    480 sRGB       TRUE         0 72x72  
## # ℹ 90 more rows
```
…
