Chapter 4 Bayes statistics | Probability
…
The following is an animated example of Bayesian updating.
The true probability for heads in a coin toss is \(\theta = 0.77\).
We throw a coin 100 times and we start with a uniform prior distribution, i.e.,
every value between 0 and 1 is equally likely at the beginning.
Everytime a coin is tossed, the prior distribution is updated with the new data.
The posterior distribution is the prior for the next coin toss et cetera.
One can see that we are converging to the “truth” (which is normally not known).

Code can be found here.

## Linking to ImageMagick 6.9.13.29
## Enabled features: cairo, fontconfig, freetype, heic, lcms, pango, raw, rsvg, webp
## Disabled features: fftw, ghostscript, x11

## # A tibble: 100 × 7
##    format width height colorspace matte filesize density
##    <chr>  <int>  <int> <chr>      <lgl>    <int> <chr>  
##  1 GIF      480    480 sRGB       TRUE         0 72x72  
##  2 GIF      480    480 sRGB       TRUE         0 72x72  
##  3 GIF      480    480 sRGB       TRUE         0 72x72  
##  4 GIF      480    480 sRGB       TRUE         0 72x72  
##  5 GIF      480    480 sRGB       TRUE         0 72x72  
##  6 GIF      480    480 sRGB       TRUE         0 72x72  
##  7 GIF      480    480 sRGB       TRUE         0 72x72  
##  8 GIF      480    480 sRGB       TRUE         0 72x72  
##  9 GIF      480    480 sRGB       TRUE         0 72x72  
## 10 GIF      480    480 sRGB       TRUE         0 72x72  
## # ℹ 90 more rows
…
